Size Sound Symbolism
…
# Check:

phones

## # A tibble: 39 x 20
##    Phoneme Class VowelHeight VowelAnteriority VowelRounding VowelClass Obstruent
##    <chr>   <chr> <chr>       <chr>            <chr>         <chr>      <chr>    
##  1 AA      vowel open        back             rounded       vowel      vowel    
##  2 AE      vowel open        front            unrounded     vowel      vowel    
##  3 AH      vowel open-mid    back             unrounded     vowel      vowel    
##  4 AO      vowel open-mid    back             rounded       vowel      vowel    
##  5 AW      vowel <NA>        <NA>             <NA>          diphthong  vowel    
##  6 AY      vowel <NA>        <NA>             unrounded     diphthong  vowel    
##  7 B       stop  <NA>        <NA>             <NA>          <NA>       obstruent
##  8 CH      affr <NA>        <NA>             <NA>          <NA>       obstruent
##  9 D       stop  <NA>        <NA>             <NA>          <NA>       obstruent
## 10 DH      fric <NA>        <NA>             <NA>          <NA>       obstruent
## #  with 29 more rows, and 13 more variables: Voicing <chr>, Dur_M <dbl>,
## #   Dur_W <dbl>, F0_M <dbl>, F0_W <dbl>, F1_M <dbl>, F1_W <dbl>, F2_M <dbl>,
## #   F2_W <dbl>, VOT_M <dbl>, VOT_F <dbl>, COG <dbl>, IPA <chr>
…
all_important <- mutate(all_important,
                        Phoneme = str_replace(Phoneme, '_01', ''))

# Merge IPA characters into there:

all_important <- left_join(all_important, select(phones, Phoneme, IPA))

## Joining, by = "Phoneme"

Show in order:

arrange(all_important, desc(Importance))

## # A tibble: 39 x 3
##    Phoneme Importance IPA  
##    <chr>        <dbl> <chr>
##  1 IY        0.0582       
##  2 IH        0.0328   i    
##  3 T         0.0222   t    
##  4 AA        0.0126       
##  5 EH        0.00592      
##  6 G         0.00275  g    
##  7 AW        0.00115  a   
##  8 HH        0.000956 h    
##  9 K         0.000936 k    
## 10 CH        0        t   
## #  with 29 more rows
…
## [1] 5553

Clean Glasgow norms  get rid of the sense information so that we can merge word senses:

glasgow <- mutate(glasgow,
                  Word = str_replace(Word, ' \\(.+?\\)', ''))

Show duplicate examples:

filter(glasgow, duplicated(Word))

## # A tibble: 870 x 3
##    Word    Concreteness  Size
##    <chr>          <dbl> <dbl>
##  1 address         5.58  3.47
##  2 address         4.11  4.17
##  3 aim             3.29  4.5 
##  4 aim             4.68  3.69
##  5 apple           6.76  2.31
##  6 arm             6.69  3.39
##  7 arm             5.76  4.94
##  8 arms            6.74  3.6 
##  9 arms            6.24  5.44
## 10 ass             6.81  3.49
## #  with 860 more rows
…
## Joining, by = "Phoneme"

adj_important <- tibble(Phoneme = names(adj_important),
                         Importance = adj_important) %>% 
  right_join(select(phones, Phoneme, IPA))

## Joining, by = "Phoneme"

Check them:

glas_important

## # A tibble: 39 x 3
##    Phoneme Importance IPA  
##    <chr>        <dbl> <chr>
##  1 R          0.00434 r    
##  2 AO         0.00239     
##  3 V          0.00208 v    
##  4 N          0.00205 n    
##  5 AH         0.00188     
##  6 K          0.00175 k    
##  7 P          0.00151 p    
##  8 B          0.00145 b    
##  9 ER         0.00140     
## 10 JH         0.00133 d   
## #  with 29 more rows

verb_important

## # A tibble: 39 x 3
##    Phoneme Importance IPA  
##    <chr>        <dbl> <chr>
##  1 EY        0.00852  e   
##  2 V         0.00783  v    
##  3 S         0.00224  s    
##  4 N         0.00185  n    
##  5 AY        0.00181  a   
##  6 R         0.00168  r    
##  7 L         0.00166  l    
##  8 Z         0.00144  z    
##  9 SH        0.000900     
## 10 F         0.000803 f    
## #  with 29 more rows

noun_important

## # A tibble: 39 x 3
##    Phoneme Importance IPA  
##    <chr>        <dbl> <chr>
##  1 AO        0.00432      
##  2 JH        0.00387  d   
##  3 R         0.00364  r    
##  4 P         0.00311  p    
##  5 K         0.00180  k    
##  6 AH        0.00158      
##  7 N         0.00156  n    
##  8 ER        0.00148      
##  9 M         0.000856 m    
## 10 B         0.000840 b    
## #  with 29 more rows

adj_important

## # A tibble: 39 x 3
##    Phoneme Importance IPA  
##    <chr>        <dbl> <chr>
##  1 AH         0.00490     
##  2 HH         0.00487 h    
##  3 L          0.00481 l    
##  4 R          0.00418 r    
##  5 IY         0.00293     
##  6 S          0.00192 s    
##  7 UH         0.00187     
##  8 V          0.00182 v    
##  9 K          0.00110 k    
## 10 N          0.00103 n    
## #  with 29 more rows
…
